{
    "photos": {
        "page": 1,
        "pages": 27125,
        "perpage": 6,
        "total": "162747",
        "photo": [
            {
                "id": "50252243461",
                "owner": "38863108@N07",
                "secret": "6d52220452",
                "server": "65535",
                "farm": 66,
                "title": "Willow & her teddy",
                "ispublic": 1,
                "isfriend": 0,
                "isfamily": 0
            },
            {
                "id": "50252240576",
                "owner": "189806191@N02",
                "secret": "cc3dfb75b1",
                "server": "65535",
                "farm": 66,
                "title": "RT @momomymarmoset: Waterproof Pet Seat Cover \ud83d\udc36 https://t.co/YQ9bQeuWFK #pet #pets #dog #dogs #puppy #cat #cats #kitty #kitties #seatcover #seatcovers #petseatcover #petseatcovers #petcarcover #petcarcovers #dogcarcover #catcarcover #pettruckcover #do",
                "ispublic": 1,
                "isfriend": 0,
                "isfamily": 0
            },
            {
                "id": "50252115166",
                "owner": "56939253@N02",
                "secret": "23d02dbdcf",
                "server": "65535",
                "farm": 66,
                "title": "Nothing's On TV",
                "ispublic": 1,
                "isfriend": 0,
                "isfamily": 0
            },
            {
                "id": "50251385888",
                "owner": "97555832@N08",
                "secret": "511d6431f9",
                "server": "65535",
                "farm": 66,
                "title": "Lucy&Felicia&Jerry_07794",
                "ispublic": 1,
                "isfriend": 0,
                "isfamily": 0
            },
            {
                "id": "50252039801",
                "owner": "20485999@N00",
                "secret": "337bd6e439",
                "server": "65535",
                "farm": 66,
                "title": "",
                "ispublic": 1,
                "isfriend": 0,
                "isfamily": 0
            },
            {
                "id": "50252039446",
                "owner": "97555832@N08",
                "secret": "bd719368e9",
                "server": "65535",
                "farm": 66,
                "title": "Hermine_07801",
                "ispublic": 1,
                "isfriend": 0,
                "isfamily": 0
            }
        ]
    },
    "stat": "ok"
}